<?xml version="1.0" encoding="UTF-8"?>
<svg width="240px" height="25px" viewBox="0 0 270 25" version="1.1" xmlns="http://www.w3.org/2000/svg" xmlns:xlink="http://www.w3.org/1999/xlink">
    <!-- Generator: Sketch 45 (43475) - http://www.bohemiancoding.com/sketch -->
    <title>BOI LOGO Copy</title>
    <desc>Created with Sketch.</desc>
    <defs></defs>
    <g id="Page-1" stroke="none" stroke-width="1" fill="none" fill-rule="evenodd">
        <g id="BOI-LOGO-Copy" fill="#ffffff">
            <path d="M246.62957,23.4599585 C257.765849,23.4599585 266.788363,18.478641 266.788363,12.3372906 C266.788363,6.19594018 257.751662,1.22827008 246.62957,1.22827008 C235.507477,1.22827008 226.414031,6.20958762 226.414031,12.350938 C226.414031,18.4922884 235.436545,23.473606 246.572824,23.473606 M223.165359,12.3645855 C223.165359,5.5408628 233.649066,0.0818846719 246.572824,0.0818846719 C259.496582,0.0818846719 269.98029,5.5408628 269.98029,12.3645855 C269.98029,19.1883081 259.510769,24.6472863 246.572824,24.6472863 C233.63488,24.6472863 223.165359,19.1883081 223.165359,12.3645855" id="Shape"></path>
            <path d="M246.62957,9.49862195 C247.012601,7.41056281 256.446519,7.12396646 256.446519,4.99496499 C256.446068,4.93961777 256.48874,4.89270234 256.545823,4.88578543 C256.574813,4.88549915 256.602486,4.89741463 256.621577,4.91840417 C256.640668,4.93939371 256.649271,4.96736103 256.645128,4.99496499 L256.645128,7.26044091 C256.645128,9.98992998 247.154464,9.60780151 246.714688,12.1871687 C246.714688,12.1871687 246.714688,12.2963482 246.62957,12.2963482 C246.544451,12.2963482 246.558638,12.2963482 246.544451,12.1871687 C246.090489,9.60780151 236.614012,9.94898764 236.614012,7.26044091 L236.614012,4.98131754 C236.614012,4.92101934 236.664823,4.87213798 236.727502,4.87213798 C236.784586,4.8790549 236.827258,4.92597032 236.826807,4.98131754 C236.826807,7.12396646 246.260725,7.41056281 246.643756,9.4849745" id="Shape"></path>
            <path d="M246.62957,14.097811 C247.012601,12.0097519 256.446519,11.7231555 256.446519,9.59415406 C256.446519,9.54139313 256.490979,9.49862195 256.545823,9.49862195 C256.600667,9.49862195 256.645128,9.54139313 256.645128,9.59415406 L256.645128,11.8459825 C256.645128,14.5754716 247.154464,14.1933431 246.714688,16.7727103 C246.714688,16.7727103 246.714688,16.8818899 246.62957,16.8818899 C246.544451,16.8818899 246.558638,16.8818899 246.544451,16.7727103 C246.090489,14.1933431 236.614012,14.5481767 236.614012,11.8459825 L236.614012,9.58050662 C236.613714,9.55261786 236.6261,9.52599665 236.647918,9.5076308 C236.669737,9.48926496 236.698808,9.48098871 236.727502,9.4849745 C236.782347,9.4849745 236.826807,9.52774569 236.826807,9.58050662 C236.826807,11.7095081 246.260725,11.9961044 246.643756,14.0841636" id="Shape"></path>
            <path d="M246.62957,18.8061797 C247.012601,16.7181205 256.446519,16.4315242 256.446519,14.2888753 C256.446519,14.2361143 256.490979,14.1933431 256.545823,14.1933431 C256.600667,14.1933431 256.645128,14.2361143 256.645128,14.2888753 L256.645128,16.5679986 C256.645128,19.2974877 247.154464,18.9017118 246.714688,21.4947264 C246.714688,21.4947264 246.714688,21.5902585 246.62957,21.5902585 C246.544451,21.5902585 246.558638,21.5902585 246.544451,21.4947264 C246.090489,18.9017118 236.614012,19.2565454 236.614012,16.5679986 L236.614012,14.2888753 C236.621202,14.2339602 236.66997,14.1929092 236.727502,14.1933431 C236.779569,14.1992958 236.820619,14.2387865 236.826807,14.2888753 C236.826807,16.4315242 246.260725,16.7181205 246.643756,18.8061797" id="Shape"></path>
            <path d="M99.2476542,7.0147869 L99.2476542,23.2279519 L103.886588,23.2279519 L103.886588,10.9452512 L107.163633,10.9452512 L107.163633,8.37953143 L103.886588,8.37953143 L103.886588,6.34606208 C103.886588,4.68107375 104.822887,3.42550878 106.454316,3.43915622 C107.670154,3.44470324 108.856259,3.80128072 109.859039,4.46271462 L109.859039,1.55580877 C108.586624,1.03478482 107.212511,0.783434839 105.830117,0.818846719 C101.16281,0.818846719 99.2476542,3.54833578 99.2476542,7.02843434" id="Shape"></path>
            <path d="M88.1964932,21.1398928 C85.5862061,21.1398928 84.5931621,19.0791286 84.5931621,14.5208818 C84.5931621,9.74427596 85.5862061,7.77904384 88.1964932,7.69715916 C90.8067802,7.61527449 91.7714516,9.83980808 91.8140106,14.5208818 C91.8565696,19.2019556 90.7925939,21.1398928 88.1964932,21.1398928 M88.1964932,5.18602922 C83.6568635,5.18602922 79.6846875,7.75174894 79.6846875,14.5208818 C79.6846875,21.2900147 83.8270996,23.7329074 88.1964932,23.7329074 C92.5658868,23.7329074 96.7082988,21.2490724 96.7082988,14.5208818 C96.7082988,7.79269128 92.9772907,5.14508689 88.1964932,5.18602922" id="Shape"></path>
            <path d="M57.7667879,23.2279519 L57.7667879,4.65377886 C57.8223687,3.53801261 57.6587308,2.4221704 57.2844522,1.36474453 L62.405722,1.36474453 L62.405722,23.2006571 L57.7667879,23.2279519 Z" id="Shape"></path>
            <path d="M68.2930542,5.65004236 L73.2015288,5.65004236 L67.3425693,12.473765 L74.1803865,23.1870096 L68.5058494,23.1870096 L62.6327034,13.3199066 L66.8886063,8.39317887 C67.6001567,7.60589673 68.1145884,6.67214209 68.3923586,5.66368981" id="Shape"></path>
            <path d="M5.46174198,12.719419 L5.46174198,20.7714118 L8.80971888,20.7714118 C11.8597826,20.7714118 13.2358578,19.2701928 13.2216715,16.5679986 C13.2074851,13.8658045 11.3632606,12.7057716 8.80971888,12.719419 L5.46174198,12.719419 Z M5.46174198,3.80763725 L5.46174198,10.2628789 L8.39831494,10.2628789 C10.8099932,10.2628789 12.3279319,9.28026282 12.3279319,6.87831244 C12.3279319,4.47636207 10.554639,3.80763725 8.41250128,3.80763725 L5.46174198,3.80763725 Z M10.3844029,23.2279519 L0.45396297,23.2279519 L0.45396297,4.79025331 C0.487097648,3.63273177 0.333967249,2.4772421 0,1.36474453 L11.3490742,1.36474453 C14.5126287,1.36474453 17.3357109,2.72948906 17.3357109,6.22323507 C17.3357109,9.71698107 14.8672873,10.7405395 12.4839817,11.2454949 C15.7530938,11.2589841 18.4213346,13.765469 18.5131774,16.9091848 C18.5131774,21.20813 14.7821692,23.2415994 10.3418439,23.2279519 L10.3844029,23.2279519 Z" id="Shape"></path>
            <path d="M29.2238662,14.5754716 C27.1810328,15.1486643 25.1523858,16.1722227 25.1523858,18.2193395 C25.0761047,18.9309676 25.343327,19.6369385 25.8774038,20.1347545 C26.4114805,20.6325705 27.1533988,20.8672254 27.8903499,20.7714118 C29.2359829,20.7483792 30.5347117,20.2918699 31.5787991,19.4749045 L31.5787991,14.0159263 C30.9546,14.1660482 30.0608604,14.3707599 29.2380525,14.6027665 M28.7840895,5.18602922 C32.2597435,5.18602922 36.2035468,5.66368981 36.2035468,10.8087767 L36.2035468,19.5567892 C36.1721235,20.7925957 36.3104536,22.0269842 36.6149508,23.2279519 L32.2455572,23.2279519 C32.1746255,22.9686505 32.032762,22.4091052 31.9192713,21.9996819 C30.2662996,23.1425467 28.2803139,23.7539208 26.2447342,23.7465549 C22.7690802,23.7465549 20.4283336,21.9996819 20.4141473,18.6560578 C20.3999609,15.3124337 22.7548938,13.6474453 26.0886844,12.8695409 C27.5073187,12.5147074 30.8411092,11.7913928 31.5646127,11.5866811 L31.5646127,10.481238 C31.5646127,8.21576209 30.2594692,7.5879796 28.8266486,7.5879796 C27.9565061,7.53033044 27.1012487,7.82720653 26.4698455,8.40607067 C25.8384424,8.98493481 25.4890526,9.79246735 25.5070443,10.6313599 L21.2511415,10.6313599 C21.2511415,8.28399931 22.8541982,5.17238178 28.7557168,5.17238178" id="Shape"></path>
            <path d="M49.0847461,5.19967667 C47.2054834,5.31754563 45.3998029,5.94706254 43.8783583,7.0147869 L43.8783583,5.65004236 L38.8138339,5.65004236 C39.1303103,6.74296235 39.2878579,7.87279436 39.2819832,9.00731391 L39.2819832,23.2415994 L43.8925446,23.2415994 L43.8925446,9.74427596 C44.8590166,8.87913408 46.0962157,8.34642292 47.4107576,8.22940953 C49.6663861,8.22940953 50.2480262,9.52591684 50.2480262,12.0916366 L50.2480262,23.2688943 L54.7592832,23.2688943 L54.7592832,11.8323351 C54.7592832,9.00731391 54.2627612,5.19967667 49.0847461,5.19967667" id="Shape"></path>
            <path d="M129.464564,7.91551829 L129.464564,5.65004236 L124.357481,5.65004236 C124.683246,6.74110896 124.840972,7.87222731 124.82563,9.00731391 L124.82563,23.2279519 L129.464564,23.2279519 L129.464564,13.1697847 C129.464564,10.1809942 131.393907,8.66612778 134.713511,8.67977523 L134.713511,5.19967667 C132.567714,5.07973654 130.535653,6.13642253 129.464564,7.92916573" id="Shape"></path>
            <path d="M211.021849,19.0518337 C210.24948,20.1373575 209.019876,20.8411051 207.659686,20.9761235 C205.602666,20.9761235 203.84356,19.8570329 203.857746,14.3571125 C203.857746,9.11649348 205.716157,7.92916573 207.631313,7.92916573 C209.011446,7.9936553 210.276562,8.68839225 211.036035,9.79886574 L211.021849,19.0518337 Z M210.5537,1.31015475 C210.905035,2.36778541 211.063422,3.47593836 211.021849,4.58554163 L211.021849,6.75548544 C209.752829,5.66517962 208.097832,5.08400384 206.397101,5.13143944 C203.559833,5.13143944 198.949271,6.67360076 198.935085,14.3161701 C198.935085,21.6175534 202.623534,23.6783176 206.113374,23.6646702 C207.919522,23.6044881 209.650596,22.9547262 211.021849,21.8222651 L211.021849,23.1870096 L215.660783,23.1870096 L215.660783,1.35109709 L210.5537,1.31015475 Z" id="Shape"></path>
            <path d="M116.37057,23.2279519 L116.37057,4.68107375 C116.390038,3.56195298 116.246789,2.44570811 115.94498,1.36474453 L121.435094,1.36474453 L121.435094,23.2006571 L116.37057,23.2279519 Z" id="Shape"></path>
            <path d="M154.900677,23.2279519 L154.900677,4.65377886 C154.953418,3.53706609 154.784917,2.42089187 154.404155,1.36474453 L159.539611,1.36474453 L159.539611,23.2006571 L154.900677,23.2279519 Z" id="Shape"></path>
            <path d="M140.373862,12.6375344 L147.467033,12.6375344 C147.339356,10.481238 146.644225,7.76539639 143.977193,7.76539639 C141.310161,7.76539639 140.657589,10.4948855 140.430607,12.6375344 M152.403881,14.220638 L152.403881,14.984895 L140.388048,14.984895 C140.388048,18.7925322 141.19667,21.1398928 143.991379,21.1535403 C146.232822,21.1535403 147.084002,19.584084 147.367729,17.2913132 L152.191086,17.2913132 C151.687713,21.2021864 148.075263,24.0400851 143.991379,23.7329074 C139.338259,23.7329074 135.479574,21.3718994 135.479574,14.1796957 C135.479574,8.01105041 139.281514,5.13143944 143.991379,5.13143944 C148.701245,5.13143944 152.503185,7.99740296 152.418067,14.1524008" id="Shape"></path>
            <path d="M170.888685,14.5754716 C168.860038,15.1486643 166.817205,16.1722227 166.831391,18.2193395 C166.750277,18.9296009 167.013889,19.6361982 167.545975,20.1347418 C168.078061,20.6332853 168.819258,20.8681547 169.555169,20.7714118 C170.896117,20.7463922 172.189699,20.2899363 173.229432,19.4749045 L173.229432,14.0159263 C172.619419,14.1660482 171.711493,14.3707599 170.888685,14.6027665 M170.434722,5.18602922 C173.89619,5.18602922 177.85418,5.66368981 177.85418,10.8087767 L177.85418,19.5567892 C177.824073,20.7925429 177.962384,22.0267659 178.265584,23.2279519 L173.924563,23.2279519 C173.853631,22.9686505 173.711768,22.4091052 173.598277,21.9996819 C171.947531,23.1467939 169.96007,23.7586222 167.92374,23.7465549 C164.433899,23.7465549 162.107339,21.9996819 162.093153,18.6560578 C162.078966,15.3124337 164.419713,13.6474453 167.76769,12.8695409 C169.186324,12.5147074 172.505928,11.7913928 173.229432,11.5866811 L173.229432,10.481238 C173.229432,8.21576209 171.924288,7.5879796 170.491468,7.5879796 C169.621325,7.53033044 168.766068,7.82720653 168.134665,8.40607067 C167.503262,8.98493481 167.153872,9.79246735 167.171864,10.6313599 L162.915961,10.6313599 C162.915961,8.28399931 164.533204,5.17238178 170.434722,5.17238178" id="Shape"></path>
            <path d="M190.749565,5.19967667 C188.865398,5.31499535 187.054443,5.94463525 185.528991,7.0147869 L185.528991,5.65004236 L180.464467,5.65004236 C180.780943,6.74296235 180.938491,7.87279436 180.932616,9.00731391 L180.932616,23.2415994 L185.543177,23.2415994 L185.543177,9.74427596 C186.51084,8.88086366 187.747396,8.348429 189.06139,8.22940953 C191.317019,8.22940953 191.898659,9.52591684 191.898659,12.0916366 L191.898659,23.2688943 L196.50922,23.2688943 L196.50922,11.8323351 C196.50922,9.00731391 196.012698,5.19967667 190.834683,5.19967667" id="Shape"></path>
        </g>
    </g>
</svg>